{
  "kind": "collectionType",
  "collectionName": "user_types",
  "info": {
    "name": "UserType"
  },
  "options": {
    "increments": true,
    "timestamps": true,
    "draftAndPublish": true
  },
  "pluginOptions": {},
  "attributes": {
    "name": {
      "type": "string"
    },
    "code": {
      "type": "uid",
      "targetField": "name"
    }
  }
}
