{
  "kind": "collectionType",
  "collectionName": "properties",
  "info": {
    "name": "Property",
    "description": ""
  },
  "options": {
    "increments": true,
    "timestamps": true,
    "draftAndPublish": true
  },
  "pluginOptions": {},
  "attributes": {
    "name": {
      "type": "string"
    },
    "propertyTypeId": {
      "model": "property-type"
    },
    "rentTypeId": {
      "model": "rent-type"
    },
    "currentPropertyStatusId": {
      "model": "property-status"
    },
    "ownerId": {
      "plugin": "users-permissions",
      "model": "user"
    },
    "contactId": {
      "plugin": "users-permissions",
      "model": "user"
    }
  }
}
